module timetable

go 1.18

require (
	github.com/PuerkitoBio/goquery v1.8.0
	github.com/arran4/golang-ical v0.0.0-20220517104411-fd89fefb0182
	github.com/getsentry/sentry-go v0.18.0
	github.com/gin-gonic/gin v1.7.7
)

require (
	github.com/andybalholm/cascadia v1.3.1 // indirect
	github.com/gin-contrib/sse v0.1.0 // indirect
	github.com/go-playground/locales v0.13.0 // indirect
	github.com/go-playground/universal-translator v0.17.0 // indirect
	github.com/go-playground/validator/v10 v10.4.1 // indirect
	github.com/golang/protobuf v1.3.3 // indirect
	github.com/json-iterator/go v1.1.9 // indirect
	github.com/leodido/go-urn v1.2.0 // indirect
	github.com/mattn/go-isatty v0.0.14 // indirect
	github.com/modern-go/concurrent v0.0.0-20180306012644-bacd9c7ef1dd // indirect
	github.com/modern-go/reflect2 v1.0.1 // indirect
	github.com/ugorji/go/codec v1.1.7 // indirect
	golang.org/x/crypto v0.0.0-20210921155107-089bfa567519 // indirect
	golang.org/x/net v0.0.0-20211008194852-3b03d305991f // indirect
	golang.org/x/sys v0.0.0-20211007075335-d3039528d8ac // indirect
	gopkg.in/yaml.v2 v2.2.8 // indirect
)
